nearpm/logging/pmdkArrSwapNDP/src/examples/libpmemobj/map/.Xil/Vivado-2761-desk053/hw_ila_data_1/zip_work/waveform.vcd
$date
        2021-Mar-31 10:52:56
$end
$version
        Vivado v2018.2 (64-bit)
$end
$timescale
        1ps
$end
$scope module dut $end
$var reg 3 " design_1_i/addrmonitor_0_state [2:0] $end
$var reg 32 % design_1_i/addrmonitor_0_physicaladdr [31:0] $end
$var reg 64 E design_1_i/addrmonitor_0_virtualaddr [63:0] $end
$var reg 64 '" design_1_i/addrmonitor_0_offset [63:0] $end
$var reg 6 g" design_1_i/addrmonitor_0_count [5:0] $end
$var reg 64 m" design_1_i/addrmonitor_0_virtualaddr_out1 [63:0] $end
$var reg 1 O# _TRIGGER $end
$var reg 1 P# _WINDOW $end
$var reg 1 Q# _GAP $end
$upscope $end
$enddefinitions $end
#0
$dumpvars
b1 "
b10001000000010000010000000000000 %
b0 E
b11111111010000011100010111101111110000000000000 '"
b101100 g"
b11111111010000011100010111101111110000000000000 m"
0O#
1P#
0Q#
$end
#13
b11111111010000011100011000101111111000000000000 E
#14
b11111111010000011100010111101111110000000000000 E
#15
b0 E
#29
b11111111010000011100011000101111111000000000000 E
#30
b11111111010000011100010111101111110000000000000 E
#31
b0 E
#45
b11111111010000011100011000101111111000000000000 E
#46
b11111111010000011100010111101111110000000000000 E
#47
b0 E
#61
b11111111010000011100011000101111111000000000000 E
#62
b11111111010000011100010111101111110000000000000 E
#63
b0 E
#77
b11111111010000011100011000101111111000000000000 E
#78
b11111111010000011100010111101111110000000000000 E
#79
b0 E
#93
b11111111010000011100011000101111111000000000000 E
#94
b11111111010000011100010111101111110000000000000 E
#95
b0 E
#109
b11111111010000011100011000101111111000000000000 E
#110
b11111111010000011100010111101111110000000000000 E
#111
b0 E
#125
b11111111010000011100011000101111111000000000000 E
#126
b11111111010000011100010111101111110000000000000 E
#127
b0 E
#141
b11111111010000011100011000101111111000000000000 E
#142
b11111111010000011100010111101111110000000000000 E
#143
b0 E
#157
b11111111010000011100011000101111111000000000000 E
#158
b11111111010000011100010111101111110000000000000 E
#159
b0 E
#173
b11111111010000011100011000101111111000000000000 E
#174
b11111111010000011100010111101111110000000000000 E
#175
b0 E
#189
b11111111010000011100011000101111111000000000000 E
#190
b11111111010000011100010111101111110000000000000 E
#191
b0 E
#205
b11111111010000011100011000101111111000000000000 E
#206
b11111111010000011100010111101111110000000000000 E
#207
b0 E
#221
b11111111010000011100011000101111111000000000000 E
#222
b11111111010000011100010111101111110000000000000 E
#223
b0 E
#237
b11111111010000011100011000101111111000000000000 E
#238
b11111111010000011100010111101111110000000000000 E
#239
b0 E
#253
b11111111010000011100011000101111111000000000000 E
#254
b11111111010000011100010111101111110000000000000 E
#255
b0 E
#269
b11111111010000011100011000101111111000000000000 E
#270
b11111111010000011100010111101111110000000000000 E
#271
b0 E
#285
b11111111010000011100011000101111111000000000000 E
#286
b11111111010000011100010111101111110000000000000 E
#287
b0 E
#301
b11111111010000011100011000101111111000000000000 E
#302
b11111111010000011100010111101111110000000000000 E
#303
b0 E
#317
b11111111010000011100011000101111111000000000000 E
#318
b11111111010000011100010111101111110000000000000 E
#319
b0 E
#333
b11111111010000011100011000101111111000000000000 E
#334
b11111111010000011100010111101111110000000000000 E
#335
b0 E
#349
b11111111010000011100011000101111111000000000000 E
#350
b11111111010000011100010111101111110000000000000 E
#351
b0 E
#365
b11111111010000011100011000101111111000000000000 E
#366
b11111111010000011100010111101111110000000000000 E
#367
b0 E
#381
b11111111010000011100011000101111111000000000000 E
#382
b11111111010000011100010111101111110000000000000 E
#383
b0 E
#397
b11111111010000011100011000101111111000000000000 E
#398
b11111111010000011100010111101111110000000000000 E
#399
b0 E
#413
b11111111010000011100011000101111111000000000000 E
#414
b11111111010000011100010111101111110000000000000 E
#415
b0 E
#429
b11111111010000011100011000101111111000000000000 E
#430
b11111111010000011100010111101111110000000000000 E
#431
b0 E
#445
b11111111010000011100011000101111111000000000000 E
#446
b11111111010000011100010111101111110000000000000 E
#447
b0 E
#461
b11111111010000011100011000101111111000000000000 E
#462
b11111111010000011100010111101111110000000000000 E
#463
b0 E
#477
b11111111010000011100011000101111111000000000000 E
#478
b11111111010000011100010111101111110000000000000 E
#479
b0 E
#493
b11111111010000011100011000101111111000000000000 E
#494
b11111111010000011100010111101111110000000000000 E
#495
b0 E
#509
b11111111010000011100011000101111111000000000000 E
#510
b11111111010000011100010111101111110000000000000 E
#511
b0 E
#512
1O#
#525
b11111111010000011100011000101111111000000000000 E
#526
b11111111010000011100010111101111110000000000000 E
#527
b0 E
#541
b11111111010000011100011000101111111000000000000 E
#542
b11111111010000011100010111101111110000000000000 E
#543
b0 E
#557
b11111111010000011100011000101111111000000000000 E
#558
b11111111010000011100010111101111110000000000000 E
#559
b0 E
#573
b11111111010000011100011000101111111000000000000 E
#574
b11111111010000011100010111101111110000000000000 E
#575
b0 E
#589
b11111111010000011100011000101111111000000000000 E
#590
b11111111010000011100010111101111110000000000000 E
#591
b0 E
#605
b11111111010000011100011000101111111000000000000 E
#606
b11111111010000011100010111101111110000000000000 E
#607
b0 E
#621
b11111111010000011100011000101111111000000000000 E
#622
b11111111010000011100010111101111110000000000000 E
#623
b0 E
#637
b11111111010000011100011000101111111000000000000 E
#638
b11111111010000011100010111101111110000000000000 E
#639
b0 E
#653
b11111111010000011100011000101111111000000000000 E
#654
b11111111010000011100010111101111110000000000000 E
#655
b0 E
#669
b11111111010000011100011000101111111000000000000 E
#670
b11111111010000011100010111101111110000000000000 E
#671
b0 E
#685
b11111111010000011100011000101111111000000000000 E
#686
b11111111010000011100010111101111110000000000000 E
#687
b0 E
#701
b11111111010000011100011000101111111000000000000 E
#702
b11111111010000011100010111101111110000000000000 E
#703
b0 E
#717
b11111111010000011100011000101111111000000000000 E
#718
b11111111010000011100010111101111110000000000000 E
#719
b0 E
#733
b11111111010000011100011000101111111000000000000 E
#734
b11111111010000011100010111101111110000000000000 E
#735
b0 E
#749
b11111111010000011100011000101111111000000000000 E
#750
b11111111010000011100010111101111110000000000000 E
#751
b0 E
#765
b11111111010000011100011000101111111000000000000 E
#766
b11111111010000011100010111101111110000000000000 E
#767
b0 E
#781
b11111111010000011100011000101111111000000000000 E
#782
b11111111010000011100010111101111110000000000000 E
#783
b0 E
#797
b11111111010000011100011000101111111000000000000 E
#798
b11111111010000011100010111101111110000000000000 E
#799
b0 E
#813
b11111111010000011100011000101111111000000000000 E
#814
b11111111010000011100010111101111110000000000000 E
#815
b0 E
#829
b11111111010000011100011000101111111000000000000 E
#830
b11111111010000011100010111101111110000000000000 E
#831
b0 E
#845
b11111111010000011100011000101111111000000000000 E
#846
b11111111010000011100010111101111110000000000000 E
#847
b0 E
#861
b11111111010000011100011000101111111000000000000 E
#862
b11111111010000011100010111101111110000000000000 E
#863
b0 E
#877
b11111111010000011100011000101111111000000000000 E
#878
b11111111010000011100010111101111110000000000000 E
#879
b0 E
#893
b11111111010000011100011000101111111000000000000 E
#894
b11111111010000011100010111101111110000000000000 E
#895
b0 E
#909
b11111111010000011100011000101111111000000000000 E
#910
b11111111010000011100010111101111110000000000000 E
#911
b0 E
#925
b11111111010000011100011000101111111000000000000 E
#926
b11111111010000011100010111101111110000000000000 E
#927
b0 E
#941
b11111111010000011100011000101111111000000000000 E
#942
b11111111010000011100010111101111110000000000000 E
#943
b0 E
#957
b11111111010000011100011000101111111000000000000 E
#958
b11111111010000011100010111101111110000000000000 E
#959
b0 E
#973
b11111111010000011100011000101111111000000000000 E
#974
b11111111010000011100010111101111110000000000000 E
#975
b0 E
#989
b11111111010000011100011000101111111000000000000 E
#990
b11111111010000011100010111101111110000000000000 E
#991
b0 E
#1005
b11111111010000011100011000101111111000000000000 E
#1006
b11111111010000011100010111101111110000000000000 E
#1007
b0 E
#1021
b11111111010000011100011000101111111000000000000 E
#1022
b11111111010000011100010111101111110000000000000 E
#1023
b0 E
