baseline/shadow/pmdkArrSwap-sd/src/examples/libpmemobj/map/.Xil/Vivado-2626-desk053/hw_ila_data_2/zip_work/waveform.vcd
$date
        2021-Apr-16 11:05:55
$end
$version
        Vivado v2018.2 (64-bit)
$end
$timescale
        1ps
$end
$scope module dut $end
$var reg 1 " design_1_i/axis_data_fifo_1_M_AXIS_TREADY $end
$var reg 32 # design_1_i/axis_data_fifo_1_M_AXIS_TDATA [31:0] $end
$var reg 1 C design_1_i/<const1>_1 $end
$var reg 1 D design_1_i/<const1>_2 $end
$var reg 1 E design_1_i/<const1>_3 $end
$var reg 1 F design_1_i/<const1> $end
$var reg 1 G design_1_i/axis_data_fifo_1_M_AXIS_TVALID $end
$var reg 1 H design_1_i/axis_data_fifo_1_M_AXIS_TLAST $end
$var reg 1 I design_1_i/<const0>_1 $end
$var reg 4 J design_1_i/axis_data_fifo_1_M_AXIS_TKEEP [3:0] $end
$var reg 1 N design_1_i/<const0>_2 $end
$var reg 1 O design_1_i/<const0> $end
$var reg 1 P _TRIGGER $end
$var reg 1 Q _WINDOW $end
$var reg 1 R _GAP $end
$upscope $end
$enddefinitions $end
#0
$dumpvars
1"
b100001011010010001010110111110 #
1C
1D
1E
1F
0G
1H
0I
b1111 J
0N
0O
0P
1Q
0R
$end
#512
b1010000011111100100111011111111 #
1G
0H
b1110 J
1P
#513
b111000111111011010000011111011 #
b1111 J
#514
b111000011110110110100011101110 #
#515
b1010000111010110101100001001111 #
#516
b1001001100110011000011111111 #
#517
b11000010100000010100001010111 #
#518
b1000110111011100101001101110011 #
#519
b11011010000011010000000011001010 #
#520
b11001100111111110110011100110111 #
#521
b11000000111110110010000011101011 #
#522
b1010010111011101100000011110001 #
#523
b10100101100101010011010111010 #
#524
b101000111101010101000010111111 #
#525
b10000110111100101001100110001 #
#526
b111011100001010000100111111011 #
#527
b10001101001111000001110101110 #
#528
b1011101100101100001010010110011 #
#529
b1111100010110110000101000001011 #
#530
0"
b1110101001101010000001111111 #
#536
1"
#537
b110010111111100011010001111111 #
#538
b10111110101000100111111111 #
#539
b10011110011111110100100010010101 #
#540
b1011000011100101001010111111001 #
#541
b100110111100110110111011101101 #
#542
b1010001010110001000001000011 #
#543
b11001000111101110001101101010010 #
#544
b10110110001100110101000001111100 #
#545
b10011100101110011000011111001 #
#546
b1011001011100110001000010110100 #
#547
b101111110000100000000011111011 #
#548
b110101011001000110100011111 #
#549
b111111100000010001011011 #
#550
b10101011011111110000110110111110 #
#551
b10000010111111111010000011011010 #
#552
b10101001011100000110010010110111 #
#553
b111100001111110111001011111111 #
#554
b11111101111110110100100011111101 #
#555
b10110111010100000001011010 #
#556
b11000011110110010000000100111101 #
#557
b11001110101110100000011110110 #
#558
b111000001110110000011011000000 #
#559
b100001011011001010010010010011 #
#560
b1000010011011110100100101110010 #
#561
b10110000111111111000010011111111 #
#562
b1010101111100000101011111111 #
#563
b10111010110011111001111011101111 #
#564
b1000111111111110001100010111011 #
#565
b1000000101111111000101011011110 #
#566
b10010110001101000000011101111 #
#567
b1101101111110000010011110010 #
#568
b10100011011000001111110 #
#569
b101000111111111001010011010101 #
#570
b10101011010110110001000000110101 #
#571
b10100111101111001100011101011 #
#572
b1011000110010101101101011 #
#573
b100010111110110011011001111111 #
#574
b1011010111001100100111010111011 #
#575
b10011000111100100000101011110011 #
#576
b11000000110111110000000110111111 #
#577
b11111010101010111001100001110101 #
#578
b10110000111101110000000010110110 #
#579
b10001110110110111000000111110 #
#580
b11110101101101010001000111010111 #
#581
b111101100110110001001000001 #
#582
b10000110111100001001001010111 #
#583
b110111111111110000010100011000 #
#584
b1001001100101010100111110111011 #
#585
b111011111110010001000001011 #
#586
b10011001111110000000011010011 #
#587
b100101111110000010100101010010 #
#588
b1000111100010001101110111 #
#589
b10100000101001011010001111010001 #
#590
b1000000101110100000100001110011 #
#591
b1101111110101110000000110100110 #
#592
b1101000101111010100011101110110 #
#593
b100110010010011000010101011 #
#594
b100011001001110111100110111111 #
#595
b10010100101101110001011011001111 #
#596
b10001100010000001010111111 #
#597
b111000111101110011000000111011 #
#598
b100010101101010010100011110111 #
#599
b100101011111101100011111111111 #
#600
b101110110000011100011011000 #
#601
b11000010111110110100000101110011 #
#602
b1000011110111000100000110110111 #
#603
b10001011110001110000000101110111 #
#604
b101011111100000111011111011 #
#605
b11100111111000110000110010110111 #
#606
b11011110110000001001110110 #
#607
b1111110110010000010100110 #
#608
b1110000001111110000100111101111 #
#609
b11100010000000001010111011 #
#610
b1010010110101111001010011001010 #
#611
b10011101111011111000000110111111 #
#612
b10011000010110001010000010111110 #
#613
b100000111101111001010011111111 #
#614
b110000101101100011001110010111 #
#615
b10100001101011100000101110111000 #
#616
b10100010011111010000000101100111 #
#617
b1110110111100110011000010110001 #
#618
b100000101100010010001011011100 #
#619
b10100011101111010011000010111110 #
#620
b1011101100110010100100011111010 #
#621
b110100101111011000000001001101 #
#622
b10111101110111110100011111011 #
#623
b11100001111110110010001001101110 #
#624
b10100000011100000000010111011 #
#625
b111000011101111010000110110011 #
#626
b10110111111010001000101011111 #
#627
b100111111001110100000101011011 #
#628
b100010011111010001100010011011 #
#629
b10110000111101110011011111110111 #
#630
b1001111101101001010000110011 #
#631
b11000111011100011011011111111 #
#632
b1101111010001111110111100010100 #
#633
b11010110010001111100011001000010 #
#634
b11100011100101001110000110100101 #
#635
b11101101110001110101110001000010 #
#636
b1110011110001111010110110100110 #
#637
b10111011100000001001101010000110 #
#638
b1011001010000011010011110000000 #
#639
b11110010110011101111101110000100 #
#640
b1111110010110011101111100001010 #
#641
b11111111101001011110111011001000 #
#642
b11111101101001000110111000000000 #
#643
b111111100000011111100101000000 #
#644
b11001101010000111111111000010100 #
#645
b11000100111001001011111000000000 #
#646
b11111010010011000001110001000000 #
#647
b11111001000101110111101000000001 #
#648
b1111110000000011101011101101000 #
#649
b10011101010001010110111101000001 #
#650
b11100011111000001110100101000000 #
#651
b11001110000100011101110001000000 #
#652
b11111011000001010111001001010000 #
#653
b10100011011100101001100000100101 #
#654
b10110111011101000101101100010001 #
#655
b1100001011100101111101100000000 #
#656
b11010001000101011011011000000000 #
#657
b1111111000000101111100100110001 #
#658
b11111011110000001111111111100000 #
#659
b110111000001111110010100100000 #
#660
b11111010010000001101111100000011 #
#661
b10101101111010011110111001001100 #
#662
b1111110001011000111110110000010 #
#663
b10001011101001101111100101000010 #
#664
b111110000011101111101001011001 #
#665
b10100111101110001101111110100101 #
#666
b11101011110000101011011101000000 #
#667
b11111111010100001110101100011010 #
#668
b1110011011100101111010000010001 #
#669
b1111011011010100111001100100100 #
#670
b1110010010110110101011100010000 #
#671
b11111111011110000110111100100010 #
#672
b11110011111110011101101001010000 #
#673
b111011001010001101111101010100 #
#674
b11111011001000101101100011001010 #
#675
b11010101001000011110000100010000 #
#676
b11111011001100101101111000100000 #
#677
b11011101000000101001100100011 #
#678
b11101100001101011110111111100000 #
#679
b11001010100000101111111100100000 #
#680
b10110001011011111011101101000 #
#681
b1111011101010001110101101110001 #
#682
b10010111011101101111001100010000 #
#683
b1011100000011000010001000100101 #
#684
b11010110001001001010101001001010 #
#685
b11101111000000110111011000110110 #
#686
b1111000100010100111111100010000 #
#687
b10101011000011101111011111110101 #
#688
b1111011001100111111101100000101 #
#689
b11111011000010110100111101011111 #
#690
b11111111000100011111101001000000 #
#691
b101100001100000111011100000001 #
#692
b10001110001000001111111110110000 #
#693
b1111000000100101100010000000010 #
#694
b11110011000110111011110101000001 #
#695
b11111101000011101110011101001100 #
#696
b11111010011000000011110100010010 #
#697
b10101011000101001111110110010100 #
#698
b11010010111100001100110011010001 #
#699
b1101110101000000110000100101011 #
#700
b10111111000010001011101011001111 #
#701
b10110110000000101011111101000100 #
#702
b1111010011000000111111000100000 #
#703
b11010001011101000011011101100000 #
#704
b10110000000000010001011111010001 #
#705
b10011011001110001111010100110001 #
#706
b11010111001000100101110000000000 #
#707
b11101111000010001100111100000011 #
#708
b11111000010001101011100110000010 #
#709
b11010111110100110111101000010000 #
#710
b10101111010000101011010000000000 #
#711
b10110011111111000100011101111011 #
#712
b11111010000000100111101000010000 #
#713
b10110111001001111111011000100100 #
#714
b11100111011110011011111000010011 #
#715
b1111111000100010110111001000010 #
#716
b11011111001110000101100110000101 #
#717
b10010100000000011100101110111000 #
#718
b11110011000000010011011100000001 #
#719
b10110011001000101110101100000001 #
#720
b11100111011000011101101001000111 #
#721
b11110101001010001010110100110101 #
#722
b10001111010011100010110111011111 #
#723
b1110011100011000111110101010000 #
#724
b10111010010100010010101101000110 #
#725
b1110101000000101101001110010100 #
#726
b1111110100000000111011011000010 #
#727
b11111111000010110011001000000100 #
#728
b1111100000101011011111000111001 #
#729
b10110101011110011111111110110000 #
#730
b11111111010000101111111001110001 #
#731
b1111101001101001110111100000101 #
#732
b10001110100100001011111100011010 #
#733
b1101110000100100001110011111000 #
#734
b11110111010100010111011001010110 #
#735
b1001000010000111110101000011 #
#736
b1111101110000001110111110010011 #
#737
b1111001100001010011101101110011 #
#738
b11011111000000000011011000000001 #
#739
b11100111001101001111111100000011 #
#740
b10110010000000000001111110100011 #
#741
b10111110000010001011111100101111 #
#742
b11111111010100110111010010000000 #
#743
b11101110100100101111011110010111 #
#744
b10110100000010111011011101000000 #
#745
b11111011001010111110111101000000 #
#746
b1110010000000100011011011001000 #
#747
b11100101101000000100101110000001 #
#748
b11110011001001010101101000110111 #
#749
b11111101101000111011101100000000 #
#750
b11111110011000111010111100001000 #
#751
b1110011010100101111111101000010 #
#752
b10110110110100011011011100000000 #
#753
b11101111100010010011111000101110 #
#754
b1010011010101001001111001000010 #
#755
b11111011101010001101111101100000 #
#756
b10110101101101001001111100100100 #
#757
b10111110001111000010001000000000 #
#758
b11101100111001100011111010110000 #
#759
b11111011000100010111101100010110 #
#760
b1011101110111011000000101001111 #
#761
b11100000110000110000000010100001 #
#762
b11110011101001001100010011100100 #
#763
b1001010111011110000001001010011 #
#764
b11001000110111111100010101101111 #
#765
b10100010111111100100001010101001 #
#766
b1101000001010100110000010111110 #
#767
b100111110010001000001111 #
#768
b1100000110011110000000010111011 #
#769
b1010110100111111000111100011011 #
#770
b11000101100111001000010011100100 #
#771
b1101110110110110100000011001110 #
#772
b1000100011101110001010011111111 #
#773
b11110111000110111011110 #
#774
b1111101011111010101110100011111 #
#775
b11100011111111011100000010011011 #
#776
b11101011100110110000000110110111 #
#777
b10010100111000110010010011110111 #
#778
b110101011101010010000101011110 #
#779
b1101000010010100000000000111111 #
#780
b11111110111010000111100111 #
#781
b1101011001100110000010000111010 #
#782
b10101010000001000001101 #
#783
b10111001110111000010111101 #
#784
b1111001101110110011101010110111 #
#785
b11110110111111110000000000011011 #
#786
b1010000111000110001001001011111 #
#787
b1110010111010111000111011101001 #
#788
b1111111010001001010100111 #
#789
b1111011101110000011110010 #
#790
b10010111111110010001011110011 #
#791
b100111010110110110010111110001 #
#792
b10010001011111110001010100111110 #
#793
b111110111100110000000001111011 #
#794
b1100111110101000001001011010 #
#795
b110100010110001110001001101111 #
#796
b11111001111110011000000011011101 #
#797
b11001010011111110111011 #
#798
b111111111110011011110110 #
#799
b10001010100111010101000000110111 #
#800
b10111100111111110111000001111111 #
#801
b111001111101000011000011111101 #
#802
b10100001001110000111100011001111 #
#803
b1011111110110110001011111000 #
#804
b1001010001011011010010111011101 #
#805
b100001011010010001010110111110 #
1H
#806
0G
#872
0"
